1:
3.7
3.4
3.6
4.5
3.6
3.8
4
3.7
4
3.5
3.1
3.6
3.9
3.9
3
3.9
3.6
4.2
4
4
3.2
4.8
3.5
10:
3.1
2.9
1000:
3.3
3
3.2
4.4
3.7
3.4
3.5
3.8
3.1
2.7
3.3
3.5
3.3
4.2
3.8
3.1
3.1
3.1
3.2
3.7
3.4
3.8
2.5
3.1
3.9
3.2
3.6
10000:
3.8
3.5
10001:
3.4
4.1
3.6
2.8
4.2
3.4
3.4
3.9
3.7
3.5
4
4
3
4
3.6
3.5
4.1
10002:
4.1
3.4
4.5
3.9
10003:
2.6
10004:
4.8
3.9
4.2
3.8
4.5
4.2
4.3
4.1
4.2
4.1
4.3
3.9
4
3.8
4.2
4.2
4.3
4.3
4.4
3.9
4.1
3.9
4
4
5
3.8
4
4.2
3.6
4.6
4.3
10005:
3.6
3.9
3.3
3
3.1
10006:
3.7
3.2
3.8
2.8
10007:
2.4
3
2.5
2.5
2.4
2.7
2.3
3
2.7
2.9
2.5
2.8
2.6
10008:
4.6
3.3
3.5
2.9
4.1
3.9
3.9
10009:
3.1
3.4
4.4
2.8
2.7
3.3
1001:
4.3
3.4
3.1
3.2
3.9
3.9
3.7
3.4
2.8
3.6
3.5
3.8
3
3.6
3.6
3.3
3.9
3.7
3
3.1
3
3.7
3.3
2.9
3.5
3
3.6
3.6
3.6
4
3.6
4.4
3
3.4
3.4
3.4
3.9
3
2.9
3.7
3.8
3
3.6
3.9
3.9
3.6
3.4
3.2
3.2
3.9
3.2
2.5
2.7
3.6
3.7
4
3
3.4
3.5
3.2
3.3
3.2
3.1
3
3.9
3
2.9
3.1
3.9
3.4
3
3.2
3.5
3
3.2
3.7
2.8
2.8
3.5
3.5
3.6
3.9
2.7
3.6
3.4
3.3
3.3
3.9
3.3
3
3.9
3.4
3.6
3.7
3.2
2.8
3.2
3
3.3
3.3
3.5
3.4
3.1
3.1
3.4
3.4
3.6
3.7
3.6
2.9
3.1
3.3
3.4
3.1
3.4
2.8
3.1
3.7
3.6
3.1
3.4
3.4
3.2
3.5
3.3
3.3
3.1
3.7
3.4
3.2
3.4
3.7
3.5
3.2
10010:
2.5
2.3
2.4
3.2
2.8
2.5
2.6
2.4
2.1
RMSE: 0.98
