10003:
2.5
10008:
4.8
3.3
3.5
2.7
4.3
4.0
4.0
10009:
3.0
3.4
4.7
2.7
2.6
3.3
1001:
4.5
3.4
3.0
3.2
4.0
4.0
3.7
3.4
2.7
3.6
3.5
3.8
2.9
3.6
3.6
3.3
4.1
3.8
2.9
3.1
2.9
3.7
3.3
2.8
3.5
2.9
3.6
3.6
3.6
4.2
3.7
4.7
2.9
3.4
3.4
3.4
4.0
2.9
2.7
3.7
3.9
2.9
3.6
4.0
4.1
3.6
3.3
3.1
3.2
4.0
3.2
2.3
2.5
3.6
3.8
4.1
2.9
3.4
3.5
3.1
3.3
3.1
3.0
2.9
4.0
2.9
2.8
3.0
4.1
3.4
2.9
3.1
3.5
2.9
3.1
3.7
2.7
2.6
3.5
3.5
3.7
4.0
2.5
3.6
3.4
3.3
3.3
4.0
3.3
2.9
4.0
3.4
3.6
3.8
3.2
2.7
3.2
2.9
3.2
3.3
3.5
3.4
3.0
3.0
3.4
3.4
3.6
3.7
3.6
2.7
3.0
3.3
3.4
3.0
3.4
2.7
3.0
3.8
3.7
3.0
3.3
3.4
3.2
3.5
3.2
3.3
3.0
3.8
3.4
3.2
3.4
3.7
3.5
3.2
4481:
2.8
4482:
2.4
2.4
2.9
3.0
2.4
2.9
2.7
10015:
3.7
3.3
2.7
3.5
3.9
3.4
4.0
3.9
3.9
3.4
4.0
3.7
3.4
4.3
4.1
3.5
3.7
4.2
3.7
4.2
5.0
4.2
4.6
1.9
3.3
3.4
4.2
3.7
10016:
2.8
2.0
2.3
2.9
3.7
10017:
3.1
3.5
3.2
RMSE: 0.95
